…
person_level_data
```

    ## # A tibble: 4,849 × 8
    ##    examiner_id art_unit gender start_year latest_date tenure_days    tc work_g…¹
    ##          <dbl>    <dbl> <chr>       <dbl> <date>            <dbl> <dbl>    <dbl>
    ##  1       59012     1716 male         2004 2015-07-24         4013  1700     1710
    ##  2       59025     2465 male         2009 2017-05-18         2761  2400     2460
    ##  3       59040     1724 female       2007 2017-05-23         3542  1700     1720
    ##  4       59052     2138 male         2001 2007-02-28         2017  2100     2130
    ##  5       59055     2165 male         2004 2007-12-26         1149  2100     2160
    ##  6       59056     2124 male         2000 2017-05-22         6268  2100     2120
    ##  7       59081     2489 male         2011 2017-05-19         2220  2400     2480
    ##  8       59086     2487 female       2010 2017-05-18         2527  2400     2480
    ##  9       59096     1612 male         2000 2015-11-20         5800  1600     1610
    ## 10       59117     2439 male         2009 2011-09-02          925  2400     2430
    ## # … with 4,839 more rows, and abbreviated variable name ¹​work_group
…
