…
``` r
app$quarter = quarter(app$filing_date, type = 'year.quarter')
new_app = app %>% group_by(examiner_id, quarter) %>% summarize(new_app = n())
```

    ## `summarise()` has grouped output by 'examiner_id'. You can override using the
    ## `.groups` argument.

``` r
new_app
```

    ## # A tibble: 190,881 × 3
    ## # Groups:   examiner_id [5,649]
    ##    examiner_id quarter new_app
    ##          <dbl>   <dbl>   <int>
    ##  1       59012   2004.       1
    ##  2       59012   2006.       1
    ##  3       59012   2006.       4
    ##  4       59012   2006.       5
    ##  5       59012   2006.       9
    ##  6       59012   2007.       9
    ##  7       59012   2007.      16
    ##  8       59012   2007.      11
    ##  9       59012   2007.      10
    ## 10       59012   2008.      11
    ## # … with 190,871 more rows
…
``` r
library(lubridate)
library(dplyr)
app$quarter_aban = quarter(app$abandon_date, type = 'year.quarter')
aban_app = app %>% group_by(examiner_id, quarter_aban) %>% summarize(aban_app = n())
```

    ## `summarise()` has grouped output by 'examiner_id'. You can override using the
    ## `.groups` argument.

``` r
aban_app
```

    ## # A tibble: 138,069 × 3
    ## # Groups:   examiner_id [5,649]
    ##    examiner_id quarter_aban aban_app
    ##          <dbl>        <dbl>    <int>
    ##  1       59012        2009.        2
    ##  2       59012        2010.        5
    ##  3       59012        2010.        1
    ##  4       59012        2010.        6
    ##  5       59012        2010.       12
    ##  6       59012        2011.       15
    ##  7       59012        2011.        5
    ##  8       59012          NA        38
    ##  9       59025        2012.        1
    ## 10       59025        2013.        1
    ## # … with 138,059 more rows
…
``` r
library(lubridate)
library(dplyr)
app$quarter_allow = quarter(app$patent_issue_date, type = 'year.quarter')
allow_app = app %>% group_by(examiner_id, quarter_allow) %>% summarize(allow_app = n())
```

    ## `summarise()` has grouped output by 'examiner_id'. You can override using the
    ## `.groups` argument.

``` r
allow_app
```

    ## # A tibble: 137,455 × 3
    ## # Groups:   examiner_id [5,649]
    ##    examiner_id quarter_allow allow_app
    ##          <dbl>         <dbl>     <int>
    ##  1       59012         2010.         4
    ##  2       59012         2010.         8
    ##  3       59012         2011.        10
    ##  4       59012         2011.         5
    ##  5       59012         2011.         7
    ##  6       59012         2011.         4
    ##  7       59012           NA         46
    ##  8       59025         2013.         1
    ##  9       59025         2013.         3
    ## 10       59025         2014.         3
    ## # … with 137,445 more rows
…
app$abandon_date = as.character(app$abandon_date)
app$patent_issue_date = as.character(app$patent_issue_date)
prog_app = app %>% group_by(examiner_id, quarter) %>% summarize(prog_app = sum((is.na(abandon_date) && is.na(patent_issue_date))))
```

    ## `summarise()` has grouped output by 'examiner_id'. You can override using the
    ## `.groups` argument.

``` r
prog_app
```

    ## # A tibble: 190,881 × 3
    ## # Groups:   examiner_id [5,649]
    ##    examiner_id quarter prog_app
    ##          <dbl>   <dbl>    <int>
    ##  1       59012   2004.        0
    ##  2       59012   2006.        0
    ##  3       59012   2006.        0
    ##  4       59012   2006.        0
    ##  5       59012   2006.        0
    ##  6       59012   2007.        0
    ##  7       59012   2007.        0
    ##  8       59012   2007.        0
    ##  9       59012   2007.        0
    ## 10       59012   2008.        0
    ## # … with 190,871 more rows

# Art Units

Current Art Unit

``` r
library(dplyr)
current_art = app %>% group_by(quarter) %>% summarize(current_art = n_distinct(examiner_art_unit))
current_art
```

    ## # A tibble: 70 × 2
    ##    quarter current_art
    ##      <dbl>       <int>
    ##  1   2000.         206
    ##  2   2000.         207
    ##  3   2000.         215
    ##  4   2000.         233
    ##  5   2001.         235
    ##  6   2001.         238
    ##  7   2001.         231
    ##  8   2001.         247
    ##  9   2002.         243
    ## 10   2002.         253
    ## # … with 60 more rows
Number of people in art unit

``` r
library(dplyr)
people_art = app %>% group_by(quarter, examiner_art_unit) %>% summarize(current_art = n())
```

    ## `summarise()` has grouped output by 'quarter'. You can override using the
    ## `.groups` argument.

``` r
people_art
```

    ## # A tibble: 18,404 × 3
    ## # Groups:   quarter [70]
    ##    quarter examiner_art_unit current_art
    ##      <dbl>             <dbl>       <int>
    ##  1   2000.              1600           1
    ##  2   2000.              1611           1
    ##  3   2000.              1612           5
    ##  4   2000.              1613           3
    ##  5   2000.              1614         361
    ##  6   2000.              1615         293
    ##  7   2000.              1616         297
    ##  8   2000.              1617         177
    ##  9   2000.              1618           9
    ## 10   2000.              1619          46
    ## # … with 18,394 more rows
…
``` r
library(dplyr)
art_gender = app2 %>% group_by(quarter, examiner_art_unit, gender2) %>% summarize(current_art = n())
```

    ## `summarise()` has grouped output by 'quarter', 'examiner_art_unit'. You can
    ## override using the `.groups` argument.

``` r
art_gender
```

    ## # A tibble: 48,565 × 4
    ## # Groups:   quarter, examiner_art_unit [18,404]
    ##    quarter examiner_art_unit gender2 current_art
    ##      <dbl>             <int> <chr>         <int>
    ##  1   2000.              1600 M                 1
    ##  2   2000.              1611 F                 1
    ##  3   2000.              1612 F              2112
    ##  4   2000.              1612 M              1795
    ##  5   2000.              1612 <NA>            539
    ##  6   2000.              1613 F                 2
    ##  7   2000.              1613 M                 1
    ##  8   2000.              1614 F              2192
    ##  9   2000.              1614 M              2024
    ## 10   2000.              1614 <NA>            586
    ## # … with 48,555 more rows
…
``` r
library(dplyr)
art_race = app1 %>% group_by(quarter, examiner_art_unit, race) %>% summarize(current_art = n())
```

    ## `summarise()` has grouped output by 'quarter', 'examiner_art_unit'. You can
    ## override using the `.groups` argument.

``` r
art_race
```

    ## # A tibble: 53,588 × 4
    ## # Groups:   quarter, examiner_art_unit [18,404]
    ##    quarter examiner_art_unit race     current_art
    ##      <dbl>             <int> <chr>          <int>
    ##  1   2000.              1600 pred.asi           1
    ##  2   2000.              1611 pred.whi           1
    ##  3   2000.              1612 pred.asi         381
    ##  4   2000.              1612 pred.bla         200
    ##  5   2000.              1612 pred.his         107
    ##  6   2000.              1612 pred.oth          22
    ##  7   2000.              1612 pred.whi        2880
    ##  8   2000.              1613 pred.whi           3
    ##  9   2000.              1614 pred.asi         389
    ## 10   2000.              1614 pred.bla         218
    ## # … with 53,578 more rows
…
