…
``` r
df_app <- df_app %>% mutate(time = coalesce(abandon_date, patent_issue_date)) %>% select(application_number, filing_date, time, status)

df_app$filing_date <- as.character(df_app$filing_date)
df_app$filing_date <- ifelse(!is.na(df_app$time), NA, df_app$filing_date)
df_app$filing_date <- as.Date(df_app$filing_date, "%Y-%m-%d")

df_app <- df_app %>% mutate(time = coalesce(time, filing_date)) %>% select(application_number, time, status)
df_app
```

    ## # A tibble: 2,018,477 × 3
    ##    application_number time       status
    ##    <chr>              <date>      <dbl>
    ##  1 08284457           2003-02-18      1
    ##  2 08413193           2002-08-27      1
    ##  3 08531853           1997-03-04      1
    ##  4 08637752           2005-08-09      1
    ##  5 08682726           2000-12-27      2
    ##  6 08687412           2001-07-31      1
    ##  7 08716371           2004-01-26      1
    ##  8 08765941           2001-08-22      2
    ##  9 08776818           2002-07-15      2
    ## 10 08809677           2005-02-22      1
    ## # … with 2,018,467 more rows
…
