…
# Get Predictors

``` r
efficiency <- app %>% select(application_number, examiner_id, examiner_art_unit, quarter, tc)

examiner <- examiner %>% select(examiner_id, gender, race, tenure_days)
efficiency <- efficiency %>% left_join(examiner, by = 'examiner_id')

au <- au %>% select(quarter, examiner_art_unit, size, per_female, per_white, per_black, per_Asian, per_Hispanic)
efficiency <- efficiency %>% left_join(au, by = c('examiner_art_unit', 'quarter'))
efficiency
```

    ## # A tibble: 2,018,477 × 14
    ##    applicatio…¹ exami…² exami…³ quarter    tc gender race  tenur…⁴  size per_f…⁵
    ##    <chr>          <dbl>   <dbl>   <dbl> <dbl> <chr>  <chr>   <int> <int>   <dbl>
    ##  1 08284457       96082    1764   2000.  1700 Female White    5926   265   0.585
    ##  2 08413193       87678    1764   2000.  1700 <NA>   <NA>       NA   273   0.579
    ##  3 08531853       63213    1752   2000.  1700 Female White    6344   268   0.638
    ##  4 08637752       73788    1648   2001.  1600 Female White    6331   221   0.457
    ##  5 08682726       77294    1762   2000.  1700 Male   White    6332   298   0.419
    ##  6 08687412       68606    1734   2000.  1700 Female White    6345   187   0.358
    ##  7 08716371       89557    1627   2004.  1600 Female White    5634    55   0.4  
    ##  8 08765941       97543    1645   2000.  1600 Female White    7221   108   0.463
    ##  9 08776818       98714    1637   2000.  1600 Female White    6331    69   0.333
    ## 10 08809677       65530    1723   2002.  1700 Female Asian    6345   308   0.127
    ## # … with 2,018,467 more rows, 4 more variables: per_white <dbl>,
    ## #   per_black <dbl>, per_Asian <dbl>, per_Hispanic <dbl>, and abbreviated
    ## #   variable names ¹​application_number, ²​examiner_id, ³​examiner_art_unit,
    ## #   ⁴​tenure_days, ⁵​per_female
…
